<svg width="18" height="14" viewBox="0 0 18 14" version="1.1" xmlns="http://www.w3.org/2000/svg" xmlns:xlink="http://www.w3.org/1999/xlink">
<title>Vector</title>
<desc>Created using Figma</desc>
<g id="Canvas" transform="translate(-8119 3603)">
<g id="Vector">
<use xlink:href="#path0_stroke" transform="translate(8121 -3601.5)" fill="#FFFFFF"/>
</g>
</g>
<defs>
<path id="path0_stroke" d="M 5 10L 3.99654 11.1149L 5.08184 12.0917L 6.0875 11.0331L 5 10ZM -1.00346 6.61485L 3.99654 11.1149L 6.00346 8.88507L 1.00346 4.38499L -1.00346 6.61485ZM 6.0875 11.0331L 15.5875 1.03312L 13.4125 -1.03312L 3.9125 8.96688L 6.0875 11.0331Z"/>
</defs>
</svg>
